{
    "key": "group_558255bf320b6",
    "title": "Search",
    "fields": [
        {
            "key": "field_558255c4d1269",
            "label": "Ads",
            "name": "",
            "type": "tab",
            "instructions": "",
            "required": 0,
            "conditional_logic": 0,
            "wrapper": {
                "width": "",
                "class": "",
                "id": ""
            },
            "placement": "top"
        },
        {
            "key": "field_558255ccd126a",
            "label": "Advertisements",
            "name": "advertisements",
            "type": "repeater",
            "instructions": "",
            "required": 1,
            "conditional_logic": 0,
            "wrapper": {
                "width": "",
                "class": "",
                "id": ""
            },
            "min": "",
            "max": "",
            "layout": "table",
            "button_label": "Add Ad",
            "sub_fields": [
                {
                    "key": "field_55825695d126b",
                    "label": "Ad Type",
                    "name": "ad_type",
                    "type": "select",
                    "instructions": "",
                    "required": 1,
                    "conditional_logic": 0,
                    "wrapper": {
                        "width": 10,
                        "class": "",
                        "id": ""
                    },
                    "choices": {
                        "LINK": "Link + Image",
                        "SCRIPT": "Script"
                    },
                    "default_value": {
                        "LINK": "LINK"
                    },
                    "allow_null": 0,
                    "multiple": 0,
                    "ui": 0,
                    "ajax": 0,
                    "placeholder": "",
                    "disabled": 0,
                    "readonly": 0
                },
                {
                    "key": "field_558256c0d126c",
                    "label": "Ad Link",
                    "name": "ad_link",
                    "type": "url",
                    "instructions": "",
                    "required": 1,
                    "conditional_logic": [
                        [
                            {
                                "field": "field_55825695d126b",
                                "operator": "==",
                                "value": "LINK"
                            }
                        ]
                    ],
                    "wrapper": {
                        "width": "",
                        "class": "",
                        "id": ""
                    },
                    "default_value": "",
                    "placeholder": ""
                },
                {
                    "key": "field_558256d4d126d",
                    "label": "Ad Image",
                    "name": "ad_image",
                    "type": "image",
                    "instructions": "Recommended Size: 250px by 250px.  Height is not restricted however.",
                    "required": 1,
                    "conditional_logic": [
                        [
                            {
                                "field": "field_55825695d126b",
                                "operator": "==",
                                "value": "LINK"
                            }
                        ]
                    ],
                    "wrapper": {
                        "width": "",
                        "class": "",
                        "id": ""
                    },
                    "return_format": "array",
                    "preview_size": "full",
                    "library": "all",
                    "min_width": "",
                    "min_height": "",
                    "min_size": "",
                    "max_width": "",
                    "max_height": "",
                    "max_size": "",
                    "mime_types": ""
                },
                {
                    "key": "field_55825717d126e",
                    "label": "Ad Script",
                    "name": "ad_script",
                    "type": "textarea",
                    "instructions": "Copy and paste a &lt;script&gt; tags or iFrames here.",
                    "required": 1,
                    "conditional_logic": [
                        [
                            {
                                "field": "field_55825695d126b",
                                "operator": "==",
                                "value": "SCRIPT"
                            }
                        ]
                    ],
                    "wrapper": {
                        "width": "",
                        "class": "",
                        "id": ""
                    },
                    "default_value": "",
                    "placeholder": "",
                    "maxlength": "",
                    "rows": "",
                    "new_lines": "",
                    "readonly": 0,
                    "disabled": 0
                }
            ]
        }
    ],
    "location": [
        [
            {
                "param": "page",
                "operator": "==",
                "value": "237"
            }
        ],
        [
            {
                "param": "page",
                "operator": "==",
                "value": "239"
            }
        ],
        [
            {
                "param": "page",
                "operator": "==",
                "value": "235"
            }
        ]
    ],
    "menu_order": 0,
    "position": "normal",
    "style": "default",
    "label_placement": "top",
    "instruction_placement": "label",
    "hide_on_screen": [
        "the_content"
    ],
    "modified": 1434607928
}