{"event":"details","time":1596470715,"u":"92","run":"0.52","mem":"9.66","data":"----- Initiating master send function. Post-send deletion: 1"}
{"event":"details","time":1596470715,"u":"92","run":"0.52","mem":"9.66","data":"Created fileoptions lock file `\/home\/racingsales\/public_html\/public\/cms\/content\/uploads\/pb_backupbuddy\/fileoptions\/send-gfne9hcjg9hv.txt.lock` with ID: 5f27a91be2af03.21867922."}
{"event":"details","time":1596470715,"u":"92","run":"0.52","mem":"9.66","data":"Initializing destination."}
{"event":"details","time":1596470715,"u":"92","run":"0.52","mem":"9.66","data":"Loading destination init file `\/home\/racingsales\/public_html\/public\/cms\/content\/plugins\/backupbuddy\/destinations\/s3\/init.php`."}
{"event":"details","time":1596470715,"u":"93","run":"0.53","mem":"9.66","data":"Destination init loaded."}
{"event":"details","time":1596470715,"u":"93","run":"0.53","mem":"9.66","data":"Initialized `s3` destination."}
{"event":"details","time":1596470715,"u":"93","run":"0.53","mem":"9.66","data":"Applying destination-specific defaults."}
{"event":"details","time":1596470715,"u":"93","run":"0.53","mem":"9.66","data":"Applying global destination defaults."}
{"event":"details","time":1596470715,"u":"93","run":"0.53","mem":"9.66","data":"S3 remote path set to `racingsales\/db\/`."}
{"event":"details","time":1596470715,"u":"93","run":"0.53","mem":"9.66","data":"Loading S3 SDK library file..."}
{"event":"details","time":1596470715,"u":"94","run":"0.54","mem":"9.66","data":"S3 SDK file loaded."}
{"event":"details","time":1596470715,"u":"94","run":"0.54","mem":"9.66","data":"S3: Zip file. Detecting backup type if possible."}
{"event":"details","time":1596470715,"u":"95","run":"0.54","mem":"9.66","data":"Fileoptions instance #9."}
{"event":"details","time":1596470715,"u":"95","run":"0.54","mem":"9.66","data":"S3: Detected backup type as `db` via integrity check data."}
{"event":"details","time":1596470715,"u":"95","run":"0.54","mem":"9.66","data":"Creating S3 instance."}
{"event":"details","time":1596470715,"u":"98","run":"0.57","mem":"9.90","data":"S3 instance created."}
{"event":"details","time":1596470715,"u":"98","run":"0.57","mem":"9.90","data":"Getting region for bucket: `trueagency-backupbuddy`."}
{"event":"details","time":1596470716,"u":"05","run":"0.64","mem":"9.90","data":"Bucket exists in region: ap-southeast-2"}
{"event":"details","time":1596470716,"u":"05","run":"0.64","mem":"9.90","data":"File size of 20.78 MB is less than the max chunk size of 100MB; not chunking into multipart upload."}
{"event":"details","time":1596470716,"u":"05","run":"0.64","mem":"9.90","data":"About to put (upload) object to S3: `racingsales\/db\/backup-racingsales_com_au_cms-2020_08_03-04_00pm-db-q8506qjkdm.zip`. Storage type: `standard (STANDARD)`."}
{"event":"details","time":1596470716,"u":"72","run":"1.31","mem":"9.90","data":"Success uploading file to S3 storage. Upload details: `CFResponse Object\n(\n    [header] => Array\n        (\n            [x-amz-id-2] => ge52mme3h6AJwEaDIrHC\/7c2J9cJgKJWLhDPg38xDd14d+6lONRW\/D\/0tRJbVavH3mfuS7PAjY0=\n            [x-amz-request-id] => 8EAE6D3D51768816\n            [date] => Mon, 03 Aug 2020 06:05:17 GMT\n            [x-amz-expiration] => expiry-date=\"Wed, 04 Aug 2021 00:00:00 GMT\", rule-id=\"Cleanup\"\n            [x-amz-server-side-encryption] => AES256\n            [etag] => \"db482c5b30aedd46d84999e4b5f42fdc\"\n            [content-length] => 0\n            [server] => AmazonS3\n            [_info] => Array\n                (\n                    [url] => https:\/\/trueagency-backupbuddy.s3-ap-southeast-2.amazonaws.com\/racingsales\/db\/backup-racingsales_com_au_cms-2020_08_03-04_00pm-db-q8506qjkdm.zip\n                    [content_type] => \n                    [http_code] => 200\n                    [header_size] => 406\n                    [request_size] => 828\n                    [filetime] => -1\n                    [ssl_verify_result] => 0\n                    [redirect_count] => 0\n                    [total_time] => 0.658636\n                    [namelookup_time] => 0.002367\n                    [connect_time] => 0.003836\n                    [pretransfer_time] => 0.038039\n                    [size_upload] => 21791045\n                    [size_download] => 0\n                    [speed_download] => 0\n                    [speed_upload] => 33117089\n                    [download_content_length] => 0\n                    [upload_content_length] => 21791045\n                    [starttransfer_time] => 0.055471\n                    [redirect_time] => 0\n                    [redirect_url] => \n                    [primary_ip] => 52.95.129.26\n                    [certinfo] => Array\n                        (\n                        )\n\n                    [primary_port] => 443\n                    [local_ip] => 101.0.77.58\n                    [local_port] => 50776\n                    [method] => PUT\n                )\n\n            [x-aws-request-url] => https:\/\/trueagency-backupbuddy.s3-ap-southeast-2.amazonaws.com\/racingsales\/db\/backup-racingsales_com_au_cms-2020_08_03-04_00pm-db-q8506qjkdm.zip\n            [x-aws-redirects] => 0\n            [x-aws-stringtosign] => PUT\n\napplication\/zip\nMon, 03 Aug 2020 06:05:16 GMT\nx-amz-server-side-encryption:AES256\nx-amz-storage-class:STANDARD\n\/trueagency-backupbuddy\/racingsales\/db\/backup-racingsales_com_au_cms-2020_08_03-04_00pm-db-q8506qjkdm.zip\n            [x-aws-requestheaders] => Array\n                (\n                    [Content-Length] => 21791045\n                    [Content-Type] => application\/zip\n                    [Date] => Mon, 03 Aug 2020 06:05:16 GMT\n                    [Expect] => 100-continue\n                    [x-amz-server-side-encryption] => AES256\n                    [x-amz-storage-class] => STANDARD\n                    [Authorization] => AWS AKIAIYUYIUGTGKAIR3KA:x7DUSKvo2ZoO3rG7x\/4502vsQDE=\n                )\n\n        )\n\n    [body] => \n    [status] => 200\n)\n`."}
{"event":"details","time":1596470716,"u":"72","run":"1.31","mem":"9.90","data":"Uploaded size: 20.78 MB, Speed: 31.58 MB\/sec."}
{"event":"details","time":1596470716,"u":"72","run":"1.31","mem":"9.90","data":"S3 success sending file `backup-racingsales_com_au_cms-2020_08_03-04_00pm-db-q8506qjkdm.zip`. File uploaded and reported to S3 as completed."}
{"event":"details","time":1596470716,"u":"72","run":"1.31","mem":"9.90","data":"About to load fileoptions data."}
{"event":"details","time":1596470716,"u":"72","run":"1.31","mem":"9.90","data":"Fileoptions instance #8."}
{"event":"details","time":1596470716,"u":"72","run":"1.31","mem":"9.90","data":"Created fileoptions lock file `\/home\/racingsales\/public_html\/public\/cms\/content\/uploads\/pb_backupbuddy\/fileoptions\/send-gfne9hcjg9hv.txt.lock` with ID: 5f27a91cb04c68.25609708."}
{"event":"details","time":1596470716,"u":"72","run":"1.31","mem":"9.90","data":"Fileoptions data loaded."}
{"event":"details","time":1596470716,"u":"72","run":"1.31","mem":"9.90","data":"Fileoptions saved. 512 bytes written."}
{"event":"details","time":1596470716,"u":"72","run":"1.31","mem":"9.90","data":"No S3 archive file limit to enforce."}
{"event":"details","time":1596470716,"u":"72","run":"1.31","mem":"9.90","data":"Completed send function. Success."}
{"event":"details","time":1596470716,"u":"72","run":"1.31","mem":"9.90","data":"Post-send deletion enabled."}
{"event":"details","time":1596470716,"u":"72","run":"1.31","mem":"9.90","data":"Performing post-send deletion since transfer succeeded."}
{"event":"details","time":1596470716,"u":"72","run":"1.31","mem":"9.90","data":"About to load fileoptions data."}
{"event":"details","time":1596470716,"u":"72","run":"1.31","mem":"9.90","data":"Fileoptions instance #16."}
{"event":"details","time":1596470716,"u":"72","run":"1.32","mem":"9.90","data":"Created fileoptions lock file `\/home\/racingsales\/public_html\/public\/cms\/content\/uploads\/pb_backupbuddy\/fileoptions\/send-gfne9hcjg9hv.txt.lock` with ID: 5f27a91cb12522.02279102."}
{"event":"details","time":1596470716,"u":"73","run":"1.32","mem":"9.90","data":"Fileoptions data loaded."}
{"event":"details","time":1596470716,"u":"73","run":"1.32","mem":"9.90","data":"Deleting local file `\/home\/racingsales\/public_html\/public\/cms\/content\/uploads\/backupbuddy_backups\/backup-racingsales_com_au_cms-2020_08_03-04_00pm-db-q8506qjkdm.zip`."}
{"event":"details","time":1596470716,"u":"74","run":"1.33","mem":"9.90","data":"Deleted local archive after successful remote destination send based on settings."}
{"event":"archiveDeleted","time":1596470716,"u":"74","run":"1.33","mem":"9.90","data":""}
{"event":"details","time":1596470716,"u":"74","run":"1.33","mem":"9.90","data":"Deleting local file `\/home\/racingsales\/public_html\/public\/cms\/content\/uploads\/backupbuddy_backups\/backup-racingsales_com_au_cms-2020_08_03-04_00pm-db-q8506qjkdm.zip`."}
{"event":"details","time":1596470716,"u":"74","run":"1.34","mem":"9.90","data":"Deleted local archive after successful remote destination send based on settings."}
{"event":"archiveDeleted","time":1596470716,"u":"74","run":"1.34","mem":"9.90","data":""}
