{
 	"jshint" : {
 		"all" : [
 			"Gruntfile.js",
	        "assets/js/*.js",
	        "!assets/js/scripts.min.js",
	        "!assets/js/true-packed.js",
	        "!assets/plugins/flexslider/jquery.flexslider-min.js",
	        "!assets/js/jquery.iosslider.min.js"
 		]
 	},
 	"cssmin" : {
		"app": [
			"app/trueadmin/plugins/bootstrap/css/bootstrap.css",
	        "app/trueadmin/plugins/font-awesome/css/font-awesome.min.css",
	        "app/trueadmin/plugins/bootstrap-datepicker/css/datepicker.css",
	        "app/trueadmin/plugins/bootstrap-toastr/toastr.min.css",
	        "app/trueadmin/plugins/bootstrap-switch/css/bootstrap-switch.min.css",
	        "app/trueadmin/plugins/select2/select2.css",
	        "app/trueadmin/plugins/select2/select2-metronic.css",
	        "app/trueadmin/plugins/bootstrap-markdown/css/bootstrap-markdown.min.css",
	        "app/trueadmin/plugins/bootstrap-fileinput/bootstrap-fileinput.css",
	        "app/trueadmin/plugins/jcrop/css/jquery.Jcrop.min.css",
	        "app/trueadmin/plugins/ion/css/ion.rangeSlider.css",
	        "app/trueadmin/plugins/ion/css/ion.rangeSlider.skinNice.css",
	        "app/trueadmin/plugins/animate/animate.css",
	        "app/trueadmin/plugins/uniform/css/uniform.default.css",
	        "app/trueadmin/plugins/bootstrap-wysihtml5/wysiwyg-color.css",
	        "app/trueadmin/plugins/bootstrap-wysihtml5/bootstrap-wysihtml5.css",
	        "app/trueadmin/css/metronic/style.css",
			"app/trueadmin/css/metronic/plugins.css",
			"app/trueadmin/css/metronic/style-responsive.css",
			"app/trueadmin/css/metronic/style-metronic.css",
			"app/trueadmin/css/themes/default.css"
		]
 	},
 	"uglify" : {
 		"website": [
 			"assets/js/plugins/bootstrap/transition.js",
            "assets/js/plugins/bootstrap/alert.js",
            "assets/js/plugins/bootstrap/button.js",
            "assets/js/plugins/bootstrap/carousel.js",
            "assets/js/plugins/bootstrap/collapse.js",
            "assets/js/plugins/bootstrap/dropdown.js",
            "assets/js/plugins/bootstrap/modal.js",
            "assets/js/plugins/bootstrap/tooltip.js",
            "assets/js/plugins/bootstrap/popover.js",
            "assets/js/plugins/bootstrap/scrollspy.js",
            "assets/js/plugins/bootstrap/tab.js",
            "assets/js/plugins/bootstrap/affix.js",
            "assets/js/plugins/*.js",
            "app/trueadmin/plugins/parsley/*.js",
            "assets/js/_*.js"
 		],
 		"app" : [
 			"app/trueadmin/plugins/bootstrap/js/bootstrap.min.js",
            "app/trueadmin/plugins/bootstrap/bootstrap2-typeahead.min.js",
            "app/trueadmin/plugins/bootstrap-toastr/toastr.min.js",
            "app/trueadmin/plugins/jquery.blockui.min.js",
            "app/trueadmin/plugins/bootstrap-hover-dropdown/bootstrap-hover-dropdown.min.js",
            "app/trueadmin/plugins/bootstrap-datepicker/js/bootstrap-datepicker.js",
            "app/trueadmin/plugins/bootstrap-switch/js/bootstrap-switch.min.js",
            "app/trueadmin/plugins/select2/select2.min.js",
            "app/trueadmin/plugins/jquery-inputmask/jquery.inputmask.bundle.min.js",
            "app/trueadmin/plugins/bootbox/bootbox.min.js",
            "app/trueadmin/plugins/bootstrap-markdown/lib/markdown.js",
			"app/trueadmin/plugins/bootstrap-markdown/js/bootstrap-markdown.js",
			"app/trueadmin/plugins/jquery.pulsate.min.js",
			"app/trueadmin/plugins/uniform/jquery.uniform.min.js",
			"app/trueadmin/plugins/bootstrap-fileinput/bootstrap-fileinput.js",
			"app/trueadmin/plugins/jcrop/js/jquery.color.js",
			"app/trueadmin/plugins/jcrop/js/jquery.Jcrop.min.js",
			"app/trueadmin/plugins/bootstrap-wizard/jquery.bootstrap.wizard.min.js",
			"app/trueadmin/plugins/fileupload/jquery.ui.widget.js",
			"app/trueadmin/plugins/fileupload/jquery.fileupload.js",
			"app/trueadmin/plugins/bootstrap-wysihtml5/wysihtml5-0.3.0.js",
			"app/trueadmin/plugins/bootstrap-wysihtml5/bootstrap-wysihtml5.js",
			"app/trueadmin/plugins/jquery-printarea/jquery.PrintArea.js",
			"app/trueadmin/plugins/caman/caman.full.min.js",
			"app/trueadmin/plugins/caman/jquery.js",
			"app/trueadmin/plugins/ion.rangeSlider.min.js",
            "app/trueadmin/plugins/xeditable/*.js",
            "app/trueadmin/plugins/parsley/*.js",
            "app/trueadmin/scripts/core/app.js"
 		]
 	},
 	"livereload" : [
	 	"assets/css/main.min.css",
	    "assets/js/scripts.min.js",
	    "templates/*.php",
	    "page-templates/*.php",
	    "woocommerce/**/*.php",
	    "*.php",
	    "app/**/*.php",
	    "app/trueadmin/css/vendor.min.css",
	    "app/trueadmin/css/main.min.css",
	    "app/trueadmin/js/scripts.min.js",
	    "app/trueadmin/js/vendor.min.js"
 	]
}