{
 	"less" : [
		"assets/less/app.less"
 	],
 	"concat" : {
 		"vendor" : [
 			"assets/vendor/bootstrap/js/transition.js",
            "assets/vendor/bootstrap/js/alert.js",
            "assets/vendor/bootstrap/js/button.js",
            "assets/vendor/bootstrap/js/carousel.js",
            "assets/vendor/bootstrap/js/collapse.js",
            "assets/vendor/bootstrap/js/dropdown.js",
            "assets/vendor/bootstrap/js/modal.js",
            "assets/vendor/bootstrap/js/tooltip.js",
            "assets/vendor/bootstrap/js/popover.js",
            "assets/vendor/bootstrap/js/scrollspy.js",
            "assets/vendor/bootstrap/js/tab.js",
            "assets/vendor/bootstrap/js/affix.js",
 			"assets/vendor/*/js/*.js",
			"assets/js/true-packed.js",
			"assets/vendor/respond.min.js"
 		]
	},
	"uglify" : {
 		"app" : [
 			"assets/js/_main.js",
 			"assets/js/_*.js"
 		]
	},
	"cssmin" : {
		"app" : [
			"assets/vendor/*/css/*.css"
		]
	},
 	"livereload" : {
 		"asset" : [
		 	"assets/css/main.min.css",
		 	"assets/js/scripts.min.js"
	 	],
		"page" : [
			
		]
 	} 
}